…
****

## What is mean total number of steps taken per day?

#### 1. Calculate the total number of steps taken per day.


```r
(daily.total <- activity %>%
        group_by(date) %>%
        summarize(sum = sum(steps, na.rm = TRUE), .groups = "keep"))
```

```
## # A tibble: 61 x 2
## # Groups:   date [61]
##    date         sum
##    <date>     <int>
##  1 2012-10-01     0
##  2 2012-10-02   126
##  3 2012-10-03 11352
##  4 2012-10-04 12116
##  5 2012-10-05 13294
##  6 2012-10-06 15420
##  7 2012-10-07 11015
##  8 2012-10-08     0
##  9 2012-10-09 12811
## 10 2012-10-10  9900
## # … with 51 more rows
```
…
****

## What is the average daily activity pattern?

To observe the average daily activity pattern, first I grouped each step measurement by their corresponding intervals and then calculated the mean of the steps recorded at that interval each day.


```r
(interval.mean <- activity %>%
        group_by(interval) %>%
        summarize(mean = mean(steps, na.rm = TRUE), .groups = "keep"))
```

```
## # A tibble: 288 x 2
## # Groups:   interval [288]
##    interval   mean
##       <int>  <dbl>
##  1        0 1.72  
##  2        5 0.340 
##  3       10 0.132 
##  4       15 0.151 
##  5       20 0.0755
##  6       25 2.09  
##  7       30 0.528 
##  8       35 0.868 
##  9       40 0     
## 10       45 1.47  
## # … with 278 more rows
```
…
